%!PS-Adobe-3.0
%%Title: FinalCPT.js
%%For: 1008972
%%Creator: VIM - Vi IMproved 8.2 (2019 Dec 12)
%%CreationDate: Fri Apr 22 08:00:55 2022
%%DocumentData: Clean8Bit
%%Orientation: Portrait
%%Pages: (atend)
%%PageOrder: Ascend
%%BoundingBox: 59 49 564 800
%%DocumentMedia: A4 595 842 0 () ()
%%DocumentNeededResources: font Courier
%%+ font Courier-Bold
%%+ font Courier-Oblique
%%+ font Courier-BoldOblique
%%DocumentSuppliedResources: procset VIM-Prolog 1.4 1
%%+ encoding VIM-latin1 1.0 0
%%Requirements: duplex collate color
%%EndComments
%%BeginDefaults
%%PageResources: font Courier
%%+ font Courier-Bold
%%+ font Courier-Oblique
%%+ font Courier-BoldOblique
%%PageMedia: A4
%%EndDefaults
%%BeginProlog
%%BeginResource: procset VIM-Prolog
%%BeginDocument: /usr/share/vim/vim82/print/prolog.ps
%!PS-Adobe-3.0 Resource-ProcSet
%%Title: VIM-Prolog
%%Version: 1.4 1
%%EndComments
% Editing of this file is NOT RECOMMENDED.  You run a very good risk of causing
% all PostScript printing from VIM failing if you do.  PostScript is not called
% a write-only language for nothing!
/packedarray where not{userdict begin/setpacking/pop load def/currentpacking
false def end}{pop}ifelse/CP currentpacking def true setpacking
/bd{bind def}bind def/ld{load def}bd/ed{exch def}bd/d/def ld
/db{dict begin}bd/cde{currentdict end}bd
/T true d/F false d
/SO null d/sv{/SO save d}bd/re{SO restore}bd
/L2 systemdict/languagelevel 2 copy known{get exec}{pop pop 1}ifelse 2 ge d
/m/moveto ld/s/show ld /ms{m s}bd /g/setgray ld/r/setrgbcolor ld/sp{showpage}bd
/gs/gsave ld/gr/grestore ld/cp/currentpoint ld
/ul{gs UW setlinewidth cp UO add 2 copy newpath m 3 1 roll add exch lineto
stroke gr}bd
/bg{gs r cp BO add 4 -2 roll rectfill gr}bd
/sl{90 rotate 0 exch translate}bd
L2{
/sspd{mark exch{setpagedevice}stopped cleartomark}bd
/nc{1 db/NumCopies ed cde sspd}bd
/sps{3 db/Orientation ed[3 1 roll]/PageSize ed/ImagingBBox null d cde sspd}bd
/dt{2 db/Tumble ed/Duplex ed cde sspd}bd
/c{1 db/Collate ed cde sspd}bd
}{
/nc{/#copies ed}bd
/sps{statusdict/setpage get exec}bd
/dt{statusdict/settumble 2 copy known{get exec}{pop pop pop}ifelse
statusdict/setduplexmode 2 copy known{get exec}{pop pop pop}ifelse}bd
/c{pop}bd
}ifelse
/ffs{findfont exch scalefont d}bd/sf{setfont}bd
/ref{1 db findfont dup maxlength dict/NFD ed{exch dup/FID ne{exch NFD 3 1 roll
put}{pop pop}ifelse}forall/Encoding findresource dup length 256 eq{NFD/Encoding
3 -1 roll put}{pop}ifelse NFD dup/FontType get 3 ne{/CharStrings}{/CharProcs}
ifelse 2 copy known{2 copy get dup maxlength dict copy[/questiondown/space]{2
copy known{2 copy get 2 index/.notdef 3 -1 roll put pop exit}if pop}forall put
}{pop pop}ifelse dup NFD/FontName 3 -1 roll put NFD definefont pop end}bd
CP setpacking
(\004)cvn{}bd
% vim:ff=unix:
%%EOF
%%EndDocument
%%EndResource
%%BeginResource: encoding VIM-latin1
%%BeginDocument: /usr/share/vim/vim82/print/latin1.ps
%!PS-Adobe-3.0 Resource-Encoding
%%Title: VIM-latin1
%%Version: 1.0 0
%%EndComments
/VIM-latin1[
/.notdef /.notdef /.notdef /.notdef /.notdef /.notdef /.notdef /.notdef
/.notdef /.notdef /.notdef /.notdef /.notdef /.notdef /.notdef /.notdef
/.notdef /.notdef /.notdef /.notdef /.notdef /.notdef /.notdef /.notdef
/.notdef /.notdef /.notdef /.notdef /.notdef /.notdef /.notdef /.notdef
/space /exclam /quotedbl /numbersign /dollar /percent /ampersand /quotesingle
/parenleft /parenright /asterisk /plus /comma /minus /period /slash
/zero /one /two /three /four /five /six /seven
/eight /nine /colon /semicolon /less /equal /greater /question
/at /A /B /C /D /E /F /G
/H /I /J /K /L /M /N /O
/P /Q /R /S /T /U /V /W
/X /Y /Z /bracketleft /backslash /bracketright /asciicircum /underscore
/grave /a /b /c /d /e /f /g
/h /i /j /k /l /m /n /o
/p /q /r /s /t /u /v /w
/x /y /z /braceleft /bar /braceright /asciitilde /.notdef
/.notdef /.notdef /.notdef /.notdef /.notdef /.notdef /.notdef /.notdef
/.notdef /.notdef /.notdef /.notdef /.notdef /.notdef /.notdef /.notdef
/.notdef /.notdef /.notdef /.notdef /.notdef /.notdef /.notdef /.notdef
/.notdef /.notdef /.notdef /.notdef /.notdef /.notdef /.notdef /.notdef
/space /exclamdown /cent /sterling /currency /yen /brokenbar /section
/dieresis /copyright /ordfeminine /guillemotleft /logicalnot /hyphen /registered /macron
/degree /plusminus /twosuperior /threesuperior /acute /mu /paragraph /periodcentered
/cedilla /onesuperior /ordmasculine /guillemotright /onequarter /onehalf /threequarters /questiondown
/Agrave /Aacute /Acircumflex /Atilde /Adieresis /Aring /AE /Ccedilla
/Egrave /Eacute /Ecircumflex /Edieresis /Igrave /Iacute /Icircumflex /Idieresis
/Eth /Ntilde /Ograve /Oacute /Ocircumflex /Otilde /Odieresis /multiply
/Oslash /Ugrave /Uacute /Ucircumflex /Udieresis /Yacute /Thorn /germandbls
/agrave /aacute /acircumflex /atilde /adieresis /aring /ae /ccedilla
/egrave /eacute /ecircumflex /edieresis /igrave /iacute /icircumflex /idieresis
/eth /ntilde /ograve /oacute /ocircumflex /otilde /odieresis /divide
/oslash /ugrave /uacute /ucircumflex /udieresis /yacute /thorn /ydieresis]
/Encoding defineresource pop
% vim:ff=unix:
%%EOF
%%EndDocument
%%EndResource
%%EndProlog
%%BeginSetup
595 842 0 sps
1 nc
T F dt
T c
%%IncludeResource: font Courier
/_F0 /VIM-latin1 /Courier ref
/F0 10 /_F0 ffs
%%IncludeResource: font Courier-Bold
/_F1 /VIM-latin1 /Courier-Bold ref
/F1 10 /_F1 ffs
%%IncludeResource: font Courier-Oblique
/_F2 /VIM-latin1 /Courier-Oblique ref
/F2 10 /_F2 ffs
%%IncludeResource: font Courier-BoldOblique
/_F3 /VIM-latin1 /Courier-BoldOblique ref
/F3 10 /_F3 ffs
/UO -1 d
/UW 0.5 d
/BO -2.5 d
%%EndSetup
%%Page: 1 1
%%BeginPageSetup
sv
0 g
F0 sf
%%EndPageSetup
F1 sf
(FinalCPT.js                                                                   Page 1)59.5 792.4 ms
F0 sf
(onEvent\()59.5 772.4 ms
0 0 0.753 r
("DNAinput")s
0 g
(, )s
0 0 0.753 r
("input")s
0 g
(, )s
0.502 0.502 0 r
(function)s
0 g
(\( \) )s
0.502 0.502 0 r
({)s
0 g
(  setProperty\()59.5 762.4 ms
0 0 0.753 r
("DNAinput")s
0 g
(, )s
0 0 0.753 r
("text-color")s
0 g
(, )s
0 0 0.753 r
("black")s
0 g
(\);)s
(  )59.5 752.4 ms
0.502 0.502 0 r
(var)s
0 g
( input = getText\()s
0 0 0.753 r
("DNAinput")s
0 g
(\).toUpperCase\(\);)s
(  )59.5 742.4 ms
0.502 0.502 0 r
(var)s
0 g
( mRNAoutput = transcription\(input\);)s
(  translation\(mRNAoutput\);)59.5 732.4 ms
0.502 0.502 0 r
(})59.5 722.4 ms
0 g
(\);)s
0.502 0.502 0 r
(function)59.5 702.4 ms
0 g
( transcription\(DNA\))s
0.502 0.502 0 r
({)s
0 g
(  )59.5 692.4 ms
0.502 0.502 0 r
(var)s
0 g
( mRNAlist = )s
0.502 0.502 0 r
([])s
0 g
(;)s
(  )59.5 682.4 ms
0 0.502 0 r
(for)s
0 g
( \()s
0.502 0.502 0 r
(var)s
0 g
( i = 0; i < DNA.length; i++\))s
0.502 0.502 0 r
({)s
0 g
(    )59.5 672.4 ms
0 0.502 0 r
(switch)s
0 g
( \(DNA)s
0.502 0.502 0 r
([)s
0 g
(i)s
0.502 0.502 0 r
(])s
0 g
(\))s
0.502 0.502 0 r
({)s
0 g
(      )59.5 662.4 ms
0 0.502 0 r
(case)s
0 g
( )s
0 0 0.753 r
("A")s
0 g
(:)s
(        appendItem\(mRNAlist, )59.5 652.4 ms
0 0 0.753 r
("U")s
0 g
(\);)s
(        )59.5 642.4 ms
0 0.502 0 r
(break)s
0 g
(;)s
(      )59.5 632.4 ms
0 0.502 0 r
(case)s
0 g
( )s
0 0 0.753 r
("T")s
0 g
(:)s
(        appendItem\(mRNAlist, )59.5 622.4 ms
0 0 0.753 r
("A")s
0 g
(\);)s
(        )59.5 612.4 ms
0 0.502 0 r
(break)s
0 g
(;)s
(      )59.5 602.4 ms
0 0.502 0 r
(case)s
0 g
( )s
0 0 0.753 r
("G")s
0 g
(:)s
(        appendItem\(mRNAlist, )59.5 592.4 ms
0 0 0.753 r
("C")s
0 g
(\);)s
(        )59.5 582.4 ms
0 0.502 0 r
(break)s
0 g
(;)s
(      )59.5 572.4 ms
0 0.502 0 r
(case)s
0 g
( )s
0 0 0.753 r
("C")s
0 g
(:)s
(        appendItem\(mRNAlist, )59.5 562.4 ms
0 0 0.753 r
("G")s
0 g
(\);)s
(        )59.5 552.4 ms
0 0.502 0 r
(break)s
0 g
(;)s
(      )59.5 542.4 ms
0 0.502 0 r
(case)s
0 g
( )s
0 0 0.753 r
(" ")s
0 g
(:)s
(        )59.5 532.4 ms
0 0.502 0 r
(continue)s
0 g
(;)s
(      )59.5 522.4 ms
0 0.502 0 r
(default)s
0 g
(:)s
(      setProperty\()59.5 512.4 ms
0 0 0.753 r
("DNAinput")s
0 g
(,)s
0 0 0.753 r
("text-color")s
0 g
(,)s
0 0 0.753 r
("red")s
0 g
(\);)s
(    )59.5 502.4 ms
0.502 0.502 0 r
(})s
0 g
(  )59.5 492.4 ms
0.502 0.502 0 r
(})s
0 g
(  )59.5 482.4 ms
0 0.502 0 r
(for)s
0 g
( \()s
0.502 0.502 0 r
(var)s
0 g
( y = 3; y < mRNAlist.length; y += 4\))s
0.502 0.502 0 r
({)s
0 g
(      insertItem\(mRNAlist, y, )59.5 472.4 ms
0 0 0.753 r
(" ")s
0 g
(\);)s
(  )59.5 462.4 ms
0.502 0.502 0 r
(})s
0 g
(  )59.5 452.4 ms
0.502 0.502 0 r
(var)s
0 g
( mRNA = mRNAlist.join\()s
0 0 0.753 r
("")s
0 g
(\);)s
(  setText\()59.5 442.4 ms
0 0 0.753 r
("mRNAoutput")s
0 g
(, mRNA\);)s
(  console.log\(mRNA\);)59.5 432.4 ms
(  )59.5 422.4 ms
0 0.502 0 r
(return)s
0 g
( mRNA;)s
0.502 0.502 0 r
(})59.5 412.4 ms
(function)59.5 392.4 ms
0 g
( translation\(mRNA\))s
0.502 0.502 0 r
({)s
0 g
(  )59.5 382.4 ms
0.502 0.502 0 r
(var)s
0 g
( AminoAcids = )s
0 0 0.753 r
("")s
0 g
(;)s
(  )59.5 372.4 ms
0 0.502 0 r
(for)s
0 g
( \()s
0.502 0.502 0 r
(var)s
0 g
( i = 0; i < mRNA.length; i += 4\))s
0.502 0.502 0 r
({)s
0 g
(    )59.5 362.4 ms
0 0.502 0 r
(switch)s
0 g
( \(mRNA.substring\(i, i + 3\)\))s
0.502 0.502 0 r
({)s
0 g
(      )59.5 352.4 ms
0 0.502 0 r
(case)s
0 g
( )s
0 0 0.753 r
("AUG")s
0 g
(:)s
(        AminoAcids += )59.5 342.4 ms
0 0 0.753 r
("Met-")s
0 g
(;)s
(        )59.5 332.4 ms
0 0.502 0 r
(break)s
0 g
(;)s
(      )59.5 322.4 ms
0 0.502 0 r
(case)s
0 g
( )s
0 0 0.753 r
("UCU")s
0 g
(: )s
0 0.502 0 r
(case)s
0 g
( )s
0 0 0.753 r
("UCC")s
0 g
(: )s
0 0.502 0 r
(case)s
0 g
( )s
0 0 0.753 r
("UCA")s
0 g
(: )s
0 0.502 0 r
(case)s
0 g
( )s
0 0 0.753 r
("UCG")s
0 g
(: )s
0 0.502 0 r
(case)s
0 g
( )s
0 0 0.753 r
("AGU")s
0 g
(: )s
0 0.502 0 r
(case)s
0 g
( )s
0 0 0.753 r
("AGC")s
0 g
(:)s
(        AminoAcids += )59.5 312.4 ms
0 0 0.753 r
("Ser-")s
0 g
(;)s
(        )59.5 302.4 ms
0 0.502 0 r
(break)s
0 g
(;)s
(      )59.5 292.4 ms
0 0.502 0 r
(case)s
0 g
( )s
0 0 0.753 r
("UUU")s
0 g
(: )s
0 0.502 0 r
(case)s
0 g
( )s
0 0 0.753 r
("UUC")s
0 g
(:)s
(       AminoAcids += )59.5 282.4 ms
0 0 0.753 r
("Phe-")s
0 g
(;)s
(       )59.5 272.4 ms
0 0.502 0 r
(break)s
0 g
(;)s
(      )59.5 262.4 ms
0 0.502 0 r
(case)s
0 g
( )s
0 0 0.753 r
("UUA")s
0 g
(: )s
0 0.502 0 r
(case)s
0 g
( )s
0 0 0.753 r
("UUG")s
0 g
(: )s
0 0.502 0 r
(case)s
0 g
( )s
0 0 0.753 r
("CUU")s
0 g
(: )s
0 0.502 0 r
(case)s
0 g
( )s
0 0 0.753 r
("CUC")s
0 g
(: )s
0 0.502 0 r
(case)s
0 g
( )s
0 0 0.753 r
("CUA")s
0 g
(: )s
0 0.502 0 r
(case)s
0 g
( )s
0 0 0.753 r
("CUG")s
0 g
(:)s
(        AminoAcids += )59.5 252.4 ms
0 0 0.753 r
("Leu-")s
0 g
(;)s
(        )59.5 242.4 ms
0 0.502 0 r
(break)s
0 g
(;)s
(      )59.5 232.4 ms
0 0.502 0 r
(case)s
0 g
( )s
0 0 0.753 r
("AUU")s
0 g
(: )s
0 0.502 0 r
(case)s
0 g
( )s
0 0 0.753 r
("AUC")s
0 g
(: )s
0 0.502 0 r
(case)s
0 g
( )s
0 0 0.753 r
("AUA")s
0 g
(:)s
(       AminoAcids += )59.5 222.4 ms
0 0 0.753 r
("Ile-")s
0 g
(;)s
(       )59.5 212.4 ms
0 0.502 0 r
(break)s
0 g
(;)s
(      )59.5 202.4 ms
0 0.502 0 r
(case)s
0 g
( )s
0 0 0.753 r
("GUU")s
0 g
(: )s
0 0.502 0 r
(case)s
0 g
( )s
0 0 0.753 r
("GUC")s
0 g
(: )s
0 0.502 0 r
(case)s
0 g
( )s
0 0 0.753 r
("GUA")s
0 g
(: )s
0 0.502 0 r
(case)s
0 g
( )s
0 0 0.753 r
("GUG")s
0 g
(:)s
(          AminoAcids += )59.5 192.4 ms
0 0 0.753 r
("Val-")s
0 g
(;)s
(          )59.5 182.4 ms
0 0.502 0 r
(break)s
0 g
(;)s
(        )59.5 172.4 ms
0 0.502 0 r
(case)s
0 g
( )s
0 0 0.753 r
("CCU")s
0 g
(: )s
0 0.502 0 r
(case)s
0 g
( )s
0 0 0.753 r
("CCC")s
0 g
(: )s
0 0.502 0 r
(case)s
0 g
( )s
0 0 0.753 r
("CCA")s
0 g
(: )s
0 0.502 0 r
(case)s
0 g
( )s
0 0 0.753 r
("CCG")s
0 g
(:)s
(          AminoAcids += )59.5 162.4 ms
0 0 0.753 r
("Pro-")s
0 g
(;)s
(          )59.5 152.4 ms
0 0.502 0 r
(break)s
0 g
(;)s
(      )59.5 142.4 ms
0 0.502 0 r
(case)s
0 g
( )s
0 0 0.753 r
("ACU")s
0 g
(: )s
0 0.502 0 r
(case)s
0 g
( )s
0 0 0.753 r
("ACC")s
0 g
(: )s
0 0.502 0 r
(case)s
0 g
( )s
0 0 0.753 r
("ACA")s
0 g
(: )s
0 0.502 0 r
(case)s
0 g
( )s
0 0 0.753 r
("ACG")s
0 g
(:)s
(          AminoAcids += )59.5 132.4 ms
0 0 0.753 r
("Thr-")s
0 g
(;)s
(        )59.5 122.4 ms
0 0.502 0 r
(break)s
0 g
(;)s
(      )59.5 112.4 ms
0 0.502 0 r
(case)s
0 g
( )s
0 0 0.753 r
("GCU")s
0 g
(: )s
0 0.502 0 r
(case)s
0 g
( )s
0 0 0.753 r
("GCC")s
0 g
(: )s
0 0.502 0 r
(case)s
0 g
( )s
0 0 0.753 r
("GCA")s
0 g
(: )s
0 0.502 0 r
(case)s
0 g
( )s
0 0 0.753 r
("GCG")s
0 g
(:)s
(          AminoAcids += )59.5 102.4 ms
0 0 0.753 r
("Ala-")s
0 g
(;)s
(          )59.5 92.4 ms
0 0.502 0 r
(break)s
0 g
(;)s
(      )59.5 82.4 ms
0 0.502 0 r
(case)s
0 g
( )s
0 0 0.753 r
("UAU")s
0 g
(: )s
0 0.502 0 r
(case)s
0 g
( )s
0 0 0.753 r
("UAC")s
0 g
(:)s
(          AminoAcids += )59.5 72.4 ms
0 0 0.753 r
("Tyr-")s
0 g
(;)s
(          )59.5 62.4 ms
0 0.502 0 r
(break)s
0 g
(;)s
(      )59.5 52.4 ms
0 0.502 0 r
(case)s
0 g
( )s
0 0 0.753 r
("CAU")s
0 g
(: )s
0 0.502 0 r
(case)s
0 g
( )s
0 0 0.753 r
("CAC")s
0 g
(:)s
re sp
%%PageTrailer
%%Page: 2 2
%%BeginPageSetup
sv
0 g
F0 sf
%%EndPageSetup
F1 sf
(FinalCPT.js                                                                   Page 2)59.5 792.4 ms
F0 sf
(          AminoAcids += )59.5 772.4 ms
0 0 0.753 r
("His-")s
0 g
(;)s
(          )59.5 762.4 ms
0 0.502 0 r
(break)s
0 g
(;)s
(      )59.5 752.4 ms
0 0.502 0 r
(case)s
0 g
( )s
0 0 0.753 r
("AAA")s
0 g
(: )s
0 0.502 0 r
(case)s
0 g
( )s
0 0 0.753 r
("AAG")s
0 g
(:)s
(          AminoAcids += )59.5 742.4 ms
0 0 0.753 r
("Lys-")s
0 g
(;)s
(          )59.5 732.4 ms
0 0.502 0 r
(break)s
0 g
(;)s
(      )59.5 722.4 ms
0 0.502 0 r
(case)s
0 g
( )s
0 0 0.753 r
("GAU")s
0 g
(: )s
0 0.502 0 r
(case)s
0 g
( )s
0 0 0.753 r
("GAC")s
0 g
(:)s
(        AminoAcids += )59.5 712.4 ms
0 0 0.753 r
("Asp-")s
0 g
(;)s
(        )59.5 702.4 ms
0 0.502 0 r
(break)s
0 g
(;)s
(      )59.5 692.4 ms
0 0.502 0 r
(case)s
0 g
( )s
0 0 0.753 r
("GAA")s
0 g
(: )s
0 0.502 0 r
(case)s
0 g
( )s
0 0 0.753 r
("GAG")s
0 g
(:)s
(        AminoAcids += )59.5 682.4 ms
0 0 0.753 r
("Glu-")s
0 g
(;)s
(        )59.5 672.4 ms
0 0.502 0 r
(break)s
0 g
(;)s
(      )59.5 662.4 ms
0 0.502 0 r
(case)s
0 g
( )s
0 0 0.753 r
("UGU")s
0 g
(: )s
0 0.502 0 r
(case)s
0 g
( )s
0 0 0.753 r
("UGC")s
0 g
(:)s
(        AminoAcids += )59.5 652.4 ms
0 0 0.753 r
("Cys-")s
0 g
(;)s
(        )59.5 642.4 ms
0 0.502 0 r
(break)s
0 g
(;)s
(      )59.5 632.4 ms
0 0.502 0 r
(case)s
0 g
( )s
0 0 0.753 r
("UGG")s
0 g
(:)s
(          AminoAcids += )59.5 622.4 ms
0 0 0.753 r
("Trp-")s
0 g
(;)s
(        )59.5 612.4 ms
0 0.502 0 r
(break)s
0 g
(;)s
(      )59.5 602.4 ms
0 0.502 0 r
(case)s
0 g
( )s
0 0 0.753 r
("CGU")s
0 g
(: )s
0 0.502 0 r
(case)s
0 g
( )s
0 0 0.753 r
("CGC")s
0 g
(: )s
0 0.502 0 r
(case)s
0 g
( )s
0 0 0.753 r
("CGA")s
0 g
(: )s
0 0.502 0 r
(case)s
0 g
( )s
0 0 0.753 r
("CGG")s
0 g
(: )s
0 0.502 0 r
(case)s
0 g
( )s
0 0 0.753 r
("AGA")s
0 g
(: )s
0 0.502 0 r
(case)s
0 g
( )s
0 0 0.753 r
("AGG")s
0 g
(:)s
(          AminoAcids += )59.5 592.4 ms
0 0 0.753 r
("Arg-")s
0 g
(;)s
(        )59.5 582.4 ms
0 0.502 0 r
(break)s
0 g
(;)s
(      )59.5 572.4 ms
0 0.502 0 r
(case)s
0 g
( )s
0 0 0.753 r
("AAU")s
0 g
(: )s
0 0.502 0 r
(case)s
0 g
( )s
0 0 0.753 r
("AAC")s
0 g
(:)s
(        AminoAcids += )59.5 562.4 ms
0 0 0.753 r
("Asn-")s
0 g
(;)s
(        )59.5 552.4 ms
0 0.502 0 r
(break)s
0 g
(;)s
(      )59.5 542.4 ms
0 0.502 0 r
(case)s
0 g
( )s
0 0 0.753 r
("CAA")s
0 g
(: )s
0 0.502 0 r
(case)s
0 g
( )s
0 0 0.753 r
("CAG")s
0 g
(:)s
(          AminoAcids += )59.5 532.4 ms
0 0 0.753 r
("Gln-")s
0 g
(;)s
(        )59.5 522.4 ms
0 0.502 0 r
(break)s
0 g
(;)s
(      )59.5 512.4 ms
0 0.502 0 r
(case)s
0 g
( )s
0 0 0.753 r
("GGU")s
0 g
(: )s
0 0.502 0 r
(case)s
0 g
( )s
0 0 0.753 r
("GGC")s
0 g
(: )s
0 0.502 0 r
(case)s
0 g
( )s
0 0 0.753 r
("GGA")s
0 g
(: )s
0 0.502 0 r
(case)s
0 g
( )s
0 0 0.753 r
("GGG")s
0 g
(:)s
(        AminoAcids += )59.5 502.4 ms
0 0 0.753 r
("Gly-")s
0 g
(;)s
(        )59.5 492.4 ms
0 0.502 0 r
(break)s
0 g
(;)s
(      )59.5 482.4 ms
0 0.502 0 r
(case)s
0 g
( )s
0 0 0.753 r
("UAA")s
0 g
(: )s
0 0.502 0 r
(case)s
0 g
( )s
0 0 0.753 r
("UAG")s
0 g
(: )s
0 0.502 0 r
(case)s
0 g
( )s
0 0 0.753 r
("UGA")s
0 g
(:)s
(        AminoAcids += )59.5 472.4 ms
0 0 0.753 r
("Stop-")s
0 g
(;)s
(        )59.5 462.4 ms
0 0.502 0 r
(break)s
0 g
(;)s
(      )59.5 452.4 ms
0 0.502 0 r
(default)s
0 g
(:)s
(          setText\()59.5 442.4 ms
0 0 0.753 r
("AAoutput")s
0 g
(, )s
0 0 0.753 r
("Cannot recognize )s
0.753 0 0.753 r
(\\")s
0 0 0.753 r
(")s
0 g
( + AminoAcids.substring\(i, i + 3\))s
( + )59.5 432.4 ms
0 0 0.753 r
(")s
0.753 0 0.753 r
(\\")s
0 0 0.753 r
(")s
0 g
(\);)s
(    )59.5 422.4 ms
0.502 0.502 0 r
(})s
0 g
(  )59.5 412.4 ms
0.502 0.502 0 r
(})s
0 g
(  AminoAcids = AminoAcids.slice\(0, AminoAcids.length-1\);)59.5 402.4 ms
(  setText\()59.5 392.4 ms
0 0 0.753 r
("AAoutput")s
0 g
(, AminoAcids\);)s
(  console.log\(AminoAcids\);)59.5 382.4 ms
0.502 0.502 0 r
(})59.5 372.4 ms
re sp
%%PageTrailer
%%Trailer
%%Pages: 2
%%EOF
